{
    "graphType": "BarGraph",
    "title": "Occurance of Muffin Related Imagery",
    "xAxis": "Location",
    "yAxis": "Probability",
    "verticalX": false,
    "displaySorted": -1,
    "data": [
        [
            "Supermarket",
            97.0
        ],
        [
            "Farm",
            24.0
        ],
        [
            "Restaurant",
            43.0
        ],
        [
            "Cafe",
            99.0
        ]
    ]
}