{
	"graphType" : "PointGraph",
	"title" : "Muffin Scatterplot",
	"xAxis" : "X",
	"yAxis" : "Y",
	"verticalX" : true,
	"data" : 
	[
		[1,			17],
		[2,			9],
		[3,			3],
		[4,			3],
		[4.5,		5],
		[5,			8],
		[7,			12],
		[8.8,		15],
		[9.2,		11],
		[12,		34],
		[15,		56],
		[16,		40],
		[17.8,		45],
		[20,		43],
		[23,		40],
		[26,		30],
		[29,		25],
		[33.3,		20],
		[36.2,		23],
		[40,		19],
		[41,		18],
		[42,		24],
		[43,		26],
		[44,		21],
		[46,		20],
		[50,		30],
		[52,		34],
		[55,		35],
		[60,		37],
		[62,		30],
		[64,		25],
		[67,		24],
		[70,		23.2],
		[72,		18.1],
		[73,		17.9],
		[74,		16.2],
		[75,		22],
		[77,		23],
		[85,		24],
		[94,		25],
		[100,		28],
		[106,		32],
		[107,		33],
		[108,		39],
		[110,		50],
		[113,		52],
		[119,		30],
		[120,		9]
	]
}